^D:\DEV\VULKAN\PHOTON ENGINE\PHOTON\PHOTON\X64\DEBUG\BUFFER.OBJ|D:\DEV\VULKAN\PHOTON ENGINE\PHOTON\PHOTON\X64\DEBUG\CAMERA.OBJ|D:\DEV\VULKAN\PHOTON ENGINE\PHOTON\PHOTON\X64\DEBUG\CAMERACONTROLLER.OBJ|D:\DEV\VULKAN\PHOTON ENGINE\PHOTON\PHOTON\X64\DEBUG\CHECKHEADER.OBJ|D:\DEV\VULKAN\PHOTON ENGINE\PHOTON\PHOTON\X64\DEBUG\DESCRIPTORLAYOUT.OBJ|D:\DEV\VULKAN\PHOTON ENGINE\PHOTON\PHOTON\X64\DEBUG\DEVICE.OBJ|D:\DEV\VULKAN\PHOTON ENGINE\PHOTON\PHOTON\X64\DEBUG\DEVICESTATE.OBJ|D:\DEV\VULKAN\PHOTON ENGINE\PHOTON\PHOTON\X64\DEBUG\ENGINE.OBJ|D:\DEV\VULKAN\PHOTON ENGINE\PHOTON\PHOTON\X64\DEBUG\FILESTREAM.OBJ|D:\DEV\VULKAN\PHOTON ENGINE\PHOTON\PHOTON\X64\DEBUG\FRAMEBUFFER.OBJ|D:\DEV\VULKAN\PHOTON ENGINE\PHOTON\PHOTON\X64\DEBUG\GEOMETRYPASS.OBJ|D:\DEV\VULKAN\PHOTON ENGINE\PHOTON\PHOTON\X64\DEBUG\HASHLIST.OBJ|D:\DEV\VULKAN\PHOTON ENGINE\PHOTON\PHOTON\X64\DEBUG\INPUTMANGER.OBJ|D:\DEV\VULKAN\PHOTON ENGINE\PHOTON\PHOTON\X64\DEBUG\KTXTEXTURE.OBJ|D:\DEV\VULKAN\PHOTON ENGINE\PHOTON\PHOTON\X64\DEBUG\LIGHTINGPASS.OBJ|D:\DEV\VULKAN\PHOTON ENGINE\PHOTON\PHOTON\X64\DEBUG\MAIN64.OBJ|D:\DEV\VULKAN\PHOTON ENGINE\PHOTON\PHOTON\X64\DEBUG\MEMSTREAM.OBJ|D:\DEV\VULKAN\PHOTON ENGINE\PHOTON\PHOTON\X64\DEBUG\MODEL.OBJ|D:\DEV\VULKAN\PHOTON ENGINE\PHOTON\PHOTON\X64\DEBUG\RENDERER.OBJ|D:\DEV\VULKAN\PHOTON ENGINE\PHOTON\PHOTON\X64\DEBUG\RENDERPASS.OBJ|D:\DEV\VULKAN\PHOTON ENGINE\PHOTON\PHOTON\X64\DEBUG\RENDERSET.OBJ|D:\DEV\VULKAN\PHOTON ENGINE\PHOTON\PHOTON\X64\DEBUG\SHADER.OBJ|D:\DEV\VULKAN\PHOTON ENGINE\PHOTON\PHOTON\X64\DEBUG\SHADOWPASS.OBJ|D:\DEV\VULKAN\PHOTON ENGINE\PHOTON\PHOTON\X64\DEBUG\SKYBOXPASS.OBJ|D:\DEV\VULKAN\PHOTON ENGINE\PHOTON\PHOTON\X64\DEBUG\SWAP.OBJ|D:\DEV\VULKAN\PHOTON ENGINE\PHOTON\PHOTON\X64\DEBUG\SWAPCHAIN.OBJ|D:\DEV\VULKAN\PHOTON ENGINE\PHOTON\PHOTON\X64\DEBUG\TEXTURE.OBJ|D:\DEV\VULKAN\PHOTON ENGINE\PHOTON\PHOTON\X64\DEBUG\UNIFORMBUFFER.OBJ|D:\DEV\VULKAN\PHOTON ENGINE\PHOTON\PHOTON\X64\DEBUG\WINDOW.OBJ|D:\DEV\VULKAN\PHOTON ENGINE\PHOTON\X64\DEBUG\FLUENT.LIB
D:\DEV\VULKAN\PHOTON ENGINE\PHOTON\EXTERN\SDL2-2.0.14\LIB\X64\SDL2.LIB
D:\DEV\VULKAN\PHOTON ENGINE\PHOTON\EXTERN\SDL2-2.0.14\LIB\X64\SDL2MAIN.LIB
D:\DEV\VULKAN\PHOTON ENGINE\PHOTON\EXTERN\FASTCRC32\LIB\FAST_CRC32.LIB
C:\PROGRAM FILES (X86)\WINDOWS KITS\10\LIB\10.0.19041.0\UM\X64\KERNEL32.LIB
C:\PROGRAM FILES (X86)\WINDOWS KITS\10\LIB\10.0.19041.0\UM\X64\USER32.LIB
C:\PROGRAM FILES (X86)\WINDOWS KITS\10\LIB\10.0.19041.0\UM\X64\GDI32.LIB
C:\PROGRAM FILES (X86)\WINDOWS KITS\10\LIB\10.0.19041.0\UM\X64\WINSPOOL.LIB
C:\PROGRAM FILES (X86)\WINDOWS KITS\10\LIB\10.0.19041.0\UM\X64\COMDLG32.LIB
C:\PROGRAM FILES (X86)\WINDOWS KITS\10\LIB\10.0.19041.0\UM\X64\ADVAPI32.LIB
C:\PROGRAM FILES (X86)\WINDOWS KITS\10\LIB\10.0.19041.0\UM\X64\SHELL32.LIB
C:\PROGRAM FILES (X86)\WINDOWS KITS\10\LIB\10.0.19041.0\UM\X64\OLE32.LIB
C:\PROGRAM FILES (X86)\WINDOWS KITS\10\LIB\10.0.19041.0\UM\X64\OLEAUT32.LIB
C:\PROGRAM FILES (X86)\WINDOWS KITS\10\LIB\10.0.19041.0\UM\X64\UUID.LIB
C:\PROGRAM FILES (X86)\WINDOWS KITS\10\LIB\10.0.19041.0\UM\X64\ODBC32.LIB
C:\PROGRAM FILES (X86)\WINDOWS KITS\10\LIB\10.0.19041.0\UM\X64\ODBCCP32.LIB
D:\DEV\VULKAN\PHOTON ENGINE\PHOTON\PHOTON\X64\DEBUG\CHECKHEADER.OBJ
D:\DEV\VULKAN\PHOTON ENGINE\PHOTON\PHOTON\X64\DEBUG\FILESTREAM.OBJ
D:\DEV\VULKAN\PHOTON ENGINE\PHOTON\PHOTON\X64\DEBUG\HASHLIST.OBJ
D:\DEV\VULKAN\PHOTON ENGINE\PHOTON\PHOTON\X64\DEBUG\KTXTEXTURE.OBJ
D:\DEV\VULKAN\PHOTON ENGINE\PHOTON\PHOTON\X64\DEBUG\MEMSTREAM.OBJ
D:\DEV\VULKAN\PHOTON ENGINE\PHOTON\PHOTON\X64\DEBUG\SWAP.OBJ
D:\DEV\VULKAN\PHOTON ENGINE\PHOTON\PHOTON\X64\DEBUG\CAMERA.OBJ
D:\DEV\VULKAN\PHOTON ENGINE\PHOTON\PHOTON\X64\DEBUG\CAMERACONTROLLER.OBJ
D:\DEV\VULKAN\PHOTON ENGINE\PHOTON\PHOTON\X64\DEBUG\ENGINE.OBJ
D:\DEV\VULKAN\PHOTON ENGINE\PHOTON\PHOTON\X64\DEBUG\INPUTMANGER.OBJ
D:\DEV\VULKAN\PHOTON ENGINE\PHOTON\PHOTON\X64\DEBUG\WINDOW.OBJ
D:\DEV\VULKAN\PHOTON ENGINE\PHOTON\PHOTON\X64\DEBUG\BUFFER.OBJ
D:\DEV\VULKAN\PHOTON ENGINE\PHOTON\PHOTON\X64\DEBUG\DESCRIPTORLAYOUT.OBJ
D:\DEV\VULKAN\PHOTON ENGINE\PHOTON\PHOTON\X64\DEBUG\DEVICE.OBJ
D:\DEV\VULKAN\PHOTON ENGINE\PHOTON\PHOTON\X64\DEBUG\DEVICESTATE.OBJ
D:\DEV\VULKAN\PHOTON ENGINE\PHOTON\PHOTON\X64\DEBUG\FRAMEBUFFER.OBJ
D:\DEV\VULKAN\PHOTON ENGINE\PHOTON\PHOTON\X64\DEBUG\GEOMETRYPASS.OBJ
D:\DEV\VULKAN\PHOTON ENGINE\PHOTON\PHOTON\X64\DEBUG\LIGHTINGPASS.OBJ
D:\DEV\VULKAN\PHOTON ENGINE\PHOTON\PHOTON\X64\DEBUG\MODEL.OBJ
D:\DEV\VULKAN\PHOTON ENGINE\PHOTON\PHOTON\X64\DEBUG\RENDERER.OBJ
D:\DEV\VULKAN\PHOTON ENGINE\PHOTON\PHOTON\X64\DEBUG\RENDERPASS.OBJ
D:\DEV\VULKAN\PHOTON ENGINE\PHOTON\PHOTON\X64\DEBUG\RENDERSET.OBJ
D:\DEV\VULKAN\PHOTON ENGINE\PHOTON\PHOTON\X64\DEBUG\SHADER.OBJ
D:\DEV\VULKAN\PHOTON ENGINE\PHOTON\PHOTON\X64\DEBUG\SHADOWPASS.OBJ
D:\DEV\VULKAN\PHOTON ENGINE\PHOTON\PHOTON\X64\DEBUG\SKYBOXPASS.OBJ
D:\DEV\VULKAN\PHOTON ENGINE\PHOTON\PHOTON\X64\DEBUG\SWAPCHAIN.OBJ
D:\DEV\VULKAN\PHOTON ENGINE\PHOTON\PHOTON\X64\DEBUG\TEXTURE.OBJ
D:\DEV\VULKAN\PHOTON ENGINE\PHOTON\PHOTON\X64\DEBUG\MAIN64.OBJ
D:\DEV\VULKAN\PHOTON ENGINE\PHOTON\PHOTON\X64\DEBUG\UNIFORMBUFFER.OBJ
D:\DEV\VULKAN\PHOTON ENGINE\PHOTON\X64\DEBUG\FLUENT.LIB
D:\DEV\VULKAN\PHOTON ENGINE\PHOTON\PHOTON\X64\DEBUG\PHOTON.ILK
C:\WINDOWS\SYSTEM32\TZRES.DLL
C:\WINDOWS\GLOBALIZATION\SORTING\SORTDEFAULT.NLS
C:\PROGRAM FILES (X86)\MICROSOFT VISUAL STUDIO\2019\COMMUNITY\VC\TOOLS\MSVC\14.29.30037\LIB\X64\MSVCRTD.LIB
C:\PROGRAM FILES (X86)\MICROSOFT VISUAL STUDIO\2019\COMMUNITY\VC\TOOLS\MSVC\14.29.30037\LIB\X64\OLDNAMES.LIB
C:\PROGRAM FILES (X86)\MICROSOFT VISUAL STUDIO\2019\COMMUNITY\VC\TOOLS\MSVC\14.29.30037\LIB\X64\MSVCPRTD.LIB
C:\PROGRAM FILES (X86)\MICROSOFT VISUAL STUDIO\2019\COMMUNITY\VC\TOOLS\MSVC\14.29.30037\LIB\X64\VCRUNTIMED.LIB
C:\PROGRAM FILES (X86)\WINDOWS KITS\10\LIB\10.0.19041.0\UCRT\X64\UCRTD.LIB
